{
    "_links": {
        "self": {
            "href": "http:\/\/default\/taxonomy\/term\/1?_format=hal_json"
        },
        "type": {
            "href": "http:\/\/drupal.org\/rest\/type\/taxonomy_term\/video_catego"
        }
    },
    "uuid": [
        {
            "value": "10edd1dd-82a8-4473-8900-fa171ee45243"
        }
    ],
    "vid": [
        {
            "target_id": "video_catego"
        }
    ],
    "langcode": [
        {
            "value": "en",
            "lang": "en"
        }
    ],
    "name": [
        {
            "value": "Munich 2012",
            "lang": "en"
        }
    ],
    "weight": [
        {
            "value": "0"
        }
    ],
    "changed": [
        {
            "value": "1446254788",
            "lang": "en"
        }
    ],
    "default_langcode": [
        {
            "value": "1",
            "lang": "en"
        }
    ]
}