{
    "_links": {
        "self": {
            "href": "http:\/\/default\/taxonomy\/term\/8?_format=hal_json"
        },
        "type": {
            "href": "http:\/\/drupal.org\/rest\/type\/taxonomy_term\/video_catego"
        }
    },
    "uuid": [
        {
            "value": "50dd3957-cbdf-4197-9203-3a0564dd37ab"
        }
    ],
    "vid": [
        {
            "target_id": "video_catego"
        }
    ],
    "langcode": [
        {
            "value": "en",
            "lang": "en"
        }
    ],
    "name": [
        {
            "value": "Barcelona 2015",
            "lang": "en"
        }
    ],
    "weight": [
        {
            "value": "0"
        }
    ],
    "changed": [
        {
            "value": "1446254748",
            "lang": "en"
        }
    ],
    "default_langcode": [
        {
            "value": "1",
            "lang": "en"
        }
    ]
}