{
    "_links": {
        "self": {
            "href": "http:\/\/default\/taxonomy\/term\/4?_format=hal_json"
        },
        "type": {
            "href": "http:\/\/drupal.org\/rest\/type\/taxonomy_term\/video_catego"
        }
    },
    "uuid": [
        {
            "value": "e4932980-c22a-41f7-ba00-c6440dd88362"
        }
    ],
    "vid": [
        {
            "target_id": "video_catego"
        }
    ],
    "langcode": [
        {
            "value": "en",
            "lang": "en"
        }
    ],
    "name": [
        {
            "value": "Los Angeles 2015",
            "lang": "en"
        }
    ],
    "weight": [
        {
            "value": "0"
        }
    ],
    "changed": [
        {
            "value": "1446267465",
            "lang": "en"
        }
    ],
    "default_langcode": [
        {
            "value": "1",
            "lang": "en"
        }
    ]
}