{
    "_links": {
        "self": {
            "href": "http:\/\/default\/taxonomy\/term\/5?_format=hal_json"
        },
        "type": {
            "href": "http:\/\/drupal.org\/rest\/type\/taxonomy_term\/video_catego"
        }
    },
    "uuid": [
        {
            "value": "e84f7f55-b55f-46b7-b24d-77c57e509154"
        }
    ],
    "vid": [
        {
            "target_id": "video_catego"
        }
    ],
    "langcode": [
        {
            "value": "en",
            "lang": "en"
        }
    ],
    "name": [
        {
            "value": "London 2011",
            "lang": "en"
        }
    ],
    "weight": [
        {
            "value": "0"
        }
    ],
    "changed": [
        {
            "value": "1446254802",
            "lang": "en"
        }
    ],
    "default_langcode": [
        {
            "value": "1",
            "lang": "en"
        }
    ]
}